{
    "population":{
        "person": [
            {
                "id": 1,
                "name": "Eliot",
                "surname": "Constans",
                "surname2": "Let",
                "sex": "H",
                "country-id": 1,
                "phone": "935555555",
                "datebirthday": "2000-03-01T00:00:00",
                "lastModification": "2016-03-01T12:45:00"
            },
            {
                "id": 2,
                "name": "Sandra",
                "surname": "Constans",
                "surname2": "Alter",
                "sex": "H",
                "country-id": 1,
                "phone": "12335555555",
                "datebirthday": "1999-03-01T00:00:00",
                "lastModification": "2012-03-01T12:45:00"
            },
            {
                "id": 3,
                "name": "Lorean",
                "surname": "Pons",
                "surname2": "Faren",
                "sex": "M",
                "country-id": 3,
                "phone": "5666451221",
                "datebirthday": "1998-03-01T00:00:00",
                "lastModification": "2012-03-01T12:45:00"
            },
            {
                "id": 4,
                "name": "Plan",
                "surname": "Pons",
                "surname2": "Calan",
                "sex": "M",
                "country-id": 3,
                "phone": "56663321",
                "datebirthday": "1996-03-20T00:00:00",
                "lastModification": "2010-04-05T11:00:32"
            },
            {
                "id": 5,
                "name": "Cantona",
                "surname": "Sor",
                "surname2": "Garcia",
                "sex": "H",
                "country-id": 2,
                "phone": "5666233",
                "datebirthday": "1997-03-10T00:00:00",
                "lastModification": "2000-02-05T09:00:00"
            },
            {
                "id": 6,
                "name": "Eliot",
                "surname": "Constans",
                "surname2": "Let",
                "sex": "H",
                "country-id": 1,
                "phone": "935555555",
                "datebirthday": "2000-03-01T00:00:00",
                "lastModification": "2016-03-01T12:45:00"
            },
            {
                "id": 7,
                "name": "Sandra",
                "surname": "Constans",
                "surname2": "Alter",
                "sex": "H",
                "country-id": 1,
                "phone": "12335555555",
                "datebirthday": "1999-03-01T00:00:00",
                "lastModification": "2012-03-01T12:45:00"
            },
            {
                "id": 8,
                "name": "Lorean",
                "surname": "Pons",
                "surname2": "Faren",
                "sex": "M",
                "country-id": 3,
                "phone": "5666451221",
                "datebirthday": "1998-03-01T00:00:00",
                "lastModification": "2012-03-01T12:45:00"
            },
            {
                "id": 9,
                "name": "Plan",
                "surname": "Pons",
                "surname2": "Calan",
                "sex": "M",
                "country-id": 3,
                "phone": "56663321",
                "datebirthday": "1996-03-20T00:00:00",
                "lastModification": "2010-04-05T11:00:32"
            },
            {
                "id": 10,
                "name": "Cantona",
                "surname": "Sor",
                "surname2": "Garcia",
                "sex": "H",
                "country-id": 2,
                "phone": "5666233",
                "datebirthday": "1997-03-10T00:00:00",
                "lastModification": "2000-02-05T09:00:00"
            },
            {
                "id":11,
                "name": "Eliot",
                "surname": "Constans",
                "surname2": "Let",
                "sex": "H",
                "country-id": 1,
                "phone": "935555555",
                "datebirthday": "2000-03-01T00:00:00",
                "lastModification": "2016-03-01T12:45:00"
            },
            {
                "id": 12,
                "name": "Sandra",
                "surname": "Constans",
                "surname2": "Alter",
                "sex": "H",
                "country-id": 1,
                "phone": "12335555555",
                "datebirthday": "1999-03-01T00:00:00",
                "lastModification": "2012-03-01T12:45:00"
            },
            {
                "id": 13,
                "name": "Lorean",
                "surname": "Pons",
                "surname2": "Faren",
                "sex": "M",
                "country-id": 3,
                "phone": "5666451221",
                "datebirthday": "1998-03-01T00:00:00",
                "lastModification": "2012-03-01T12:45:00"
            },
            {
                "id": 14,
                "name": "Plan",
                "surname": "Pons",
                "surname2": "Calan",
                "sex": "M",
                "country-id": 3,
                "phone": "56663321",
                "datebirthday": "1996-03-20T00:00:00",
                "lastModification": "2010-04-05T11:00:32"
            },
            {
                "id": 115,
                "name": "Cantona",
                "surname": "Sor",
                "surname2": "Garcia",
                "sex": "H",
                "country-id": 2,
                "phone": "5666233",
                "datebirthday": "1997-03-10T00:00:00",
                "lastModification": "2000-02-05T09:00:00"
            },
            {
                "id": 116,
                "name": "Eliot",
                "surname": "Constans",
                "surname2": "Let",
                "sex": "H",
                "country-id": 1,
                "phone": "935555555",
                "datebirthday": "2000-03-01T00:00:00",
                "lastModification": "2016-03-01T12:45:00"
            },
            {
                "id": 117,
                "name": "Sandra",
                "surname": "Constans",
                "surname2": "Alter",
                "sex": "H",
                "country-id": 1,
                "phone": "12335555555",
                "datebirthday": "1999-03-01T00:00:00",
                "lastModification": "2012-03-01T12:45:00"
            },
            {
                "id": 118,
                "name": "Lorean",
                "surname": "Pons",
                "surname2": "Faren",
                "sex": "M",
                "country-id": 3,
                "phone": "5666451221",
                "datebirthday": "1998-03-01T00:00:00",
                "lastModification": "2012-03-01T12:45:00"
            },
            {
                "id": 1000,
                "name": "Plan",
                "surname": "Pons",
                "surname2": "Calan",
                "sex": "M",
                "country-id": 3,
                "phone": "56663321",
                "datebirthday": "1996-03-20T00:00:00",
                "lastModification": "2010-04-05T11:00:32"
            },
            {
                "id": 1001,
                "name": "Cantona",
                "surname": "Sor",
                "surname2": "Garcia",
                "sex": "H",
                "country-id": 2,
                "phone": "5666233",
                "datebirthday": "1997-03-10T00:00:00",
                "lastModification": "2000-02-05T09:00:00"
            }
        ]
    }
}